<?xml version="1.0" encoding="UTF-8" standalone="no"?>
<!-- Created with Inkscape (http://www.inkscape.org/) -->

<svg
   xmlns:dc="http://purl.org/dc/elements/1.1/"
   xmlns:cc="http://creativecommons.org/ns#"
   xmlns:rdf="http://www.w3.org/1999/02/22-rdf-syntax-ns#"
   xmlns:svg="http://www.w3.org/2000/svg"
   xmlns="http://www.w3.org/2000/svg"
   xmlns:xlink="http://www.w3.org/1999/xlink"
   xmlns:sodipodi="http://sodipodi.sourceforge.net/DTD/sodipodi-0.dtd"
   xmlns:inkscape="http://www.inkscape.org/namespaces/inkscape"
   width="210mm"
   height="297mm"
   viewBox="0 0 744.09448819 1052.3622047"
   id="svg2"
   version="1.1"
   inkscape:version="0.92.5 (2060ec1f9f, 2020-04-08)"
   sodipodi:docname="res_main.svg"
   inkscape:export-filename="/home/mauro/Documents/projects/res/icons/res_main.png"
   inkscape:export-xdpi="7.3423572"
   inkscape:export-ydpi="7.3423572">
  <defs
     id="defs4">
    <linearGradient
       inkscape:collect="always"
       id="linearGradient4733">
      <stop
         style="stop-color:#ff0000;stop-opacity:1"
         offset="0"
         id="stop4729" />
      <stop
         style="stop-color:#d9d9d9;stop-opacity:0"
         offset="1"
         id="stop4731" />
    </linearGradient>
    <linearGradient
       id="linearGradient4703"
       inkscape:collect="always">
      <stop
         id="stop4699"
         offset="0"
         style="stop-color:#00ff00;stop-opacity:1" />
      <stop
         id="stop4701"
         offset="1"
         style="stop-color:#d9d9d9;stop-opacity:0" />
    </linearGradient>
    <linearGradient
       inkscape:collect="always"
       id="linearGradient4138">
      <stop
         style="stop-color:#1101f7;stop-opacity:1"
         offset="0"
         id="stop4140" />
      <stop
         style="stop-color:#d9d9d9;stop-opacity:0"
         offset="1"
         id="stop4142" />
    </linearGradient>
    <linearGradient
       inkscape:collect="always"
       xlink:href="#linearGradient4138"
       id="linearGradient4144"
       x1="308.57141"
       y1="592.36218"
       x2="348.57141"
       y2="403.79077"
       gradientUnits="userSpaceOnUse"
       gradientTransform="matrix(0.84335152,0,0,0.91430092,356.3907,-209.87207)" />
    <linearGradient
       inkscape:collect="always"
       xlink:href="#linearGradient4703"
       id="linearGradient4144-3"
       x1="308.57141"
       y1="592.36218"
       x2="348.57141"
       y2="403.79077"
       gradientUnits="userSpaceOnUse"
       gradientTransform="matrix(0.84335153,0,0,0.91430091,331.54279,-241.02251)" />
    <linearGradient
       inkscape:collect="always"
       xlink:href="#linearGradient4733"
       id="linearGradient4144-3-9"
       x1="308.57141"
       y1="592.36218"
       x2="348.57141"
       y2="403.79077"
       gradientUnits="userSpaceOnUse"
       gradientTransform="matrix(0.84335154,0,0,0.91430091,302.55356,-277.36469)" />
  </defs>
  <sodipodi:namedview
     id="base"
     pagecolor="#ffffff"
     bordercolor="#666666"
     borderopacity="1.0"
     inkscape:pageopacity="0.0"
     inkscape:pageshadow="2"
     inkscape:zoom="0.35"
     inkscape:cx="151.96939"
     inkscape:cy="520"
     inkscape:document-units="px"
     inkscape:current-layer="g3829"
     showgrid="false"
     inkscape:window-width="1366"
     inkscape:window-height="711"
     inkscape:window-x="0"
     inkscape:window-y="0"
     inkscape:window-maximized="1" />
  <metadata
     id="metadata7">
    <rdf:RDF>
      <cc:Work
         rdf:about="">
        <dc:format>image/svg+xml</dc:format>
        <dc:type
           rdf:resource="http://purl.org/dc/dcmitype/StillImage" />
        <dc:title></dc:title>
      </cc:Work>
    </rdf:RDF>
  </metadata>
  <g
     inkscape:label="Layer 1"
     inkscape:groupmode="layer"
     id="layer1">
    <g
       id="g3829">
      <rect
         transform="matrix(0.88335364,0.46870711,-0.70463035,0.70957456,0,0)"
         y="174.98793"
         x="479.27908"
         height="146.28815"
         width="226.50014"
         id="rect4136"
         style="opacity:0.38;fill:url(#linearGradient4144);fill-opacity:1;stroke:#09090c;stroke-width:3.62220359;stroke-miterlimit:4;stroke-dasharray:none;stroke-opacity:1" />
      <rect
         transform="matrix(0.88335364,0.46870711,-0.70463035,0.70957457,0,0)"
         y="143.83757"
         x="454.4313"
         height="146.28815"
         width="226.50014"
         id="rect4136-2"
         style="opacity:0.38000039;fill:url(#linearGradient4144-3);fill-opacity:1;stroke:#09090c;stroke-width:3.62220359;stroke-miterlimit:4;stroke-dasharray:none;stroke-opacity:1" />
      <rect
         transform="matrix(0.88335364,0.46870711,-0.70463035,0.70957457,0,0)"
         y="107.49538"
         x="425.44223"
         height="146.28815"
         width="226.50014"
         id="rect4136-2-7"
         style="opacity:0.38000039;fill:url(#linearGradient4144-3-9);fill-opacity:1;stroke:#09090c;stroke-width:3.62220383;stroke-miterlimit:4;stroke-dasharray:none;stroke-opacity:1" />
    </g>
  </g>
</svg>
